<svg width="500" height="200" xmlns="http://www.w3.org/2000/svg" style="vector-effect: non-scaling-stroke;" stroke="null">
 <g stroke="null">
  <title stroke="null">background</title>
  <rect stroke="null" x="-1" y="-1" width="502" height="202" id="canvas_background" fill="none"/>
 </g>

 <g stroke="null">
  <title stroke="null">Layer 1</title>
  <ellipse stroke="black" fill="none" cx="173.5" cy="119.5" rx="30" ry="30" id="svg_1"/>
  <text stroke="null" x="163.5" y="125.5" font-family="Times New Roman" font-size="20" id="svg_2">q1</text>
  <ellipse stroke="black" fill="none" cx="343.5" cy="119.5" rx="30" ry="30" id="svg_3"/>
  <text stroke="null" x="333.5" y="125.5" font-family="Times New Roman" font-size="20" id="svg_4">q2</text>
  <ellipse stroke="black" fill="none" cx="343.5" cy="119.5" rx="24" ry="24" id="svg_5"/>
  <path stroke="black" fill="none" d="m194.07,97.805a104.039,104.039 0 0 1 128.86,0" id="svg_6"/>
  <polygon stroke="null" fill="black" points="322.92999267578125,97.80499267578125 319.7460021972656,88.92498779296875 313.5530090332031,96.77700805664062 " id="svg_7"/>
  <text stroke="null" x="253.5" y="66.5" font-family="Times New Roman" font-size="20" id="svg_8">1</text>
  <path stroke="black" fill="none" d="m322.201,140.487a106.981,106.981 0 0 1 -127.402,0" id="svg_9"/>
  <polygon stroke="null" fill="black" points="194.7989959716797,140.48699951171875 198.24899291992188,149.26800537109375 204.2030029296875,141.2340087890625 " id="svg_10"/>
  <text stroke="null" x="253.5" y="182.5" font-family="Times New Roman" font-size="20" id="svg_11">0</text>
  <path stroke="black" fill="none" d="m156.206,95.129a22.5,22.5 0 1 1 26.119,-4.179" id="svg_12"/>
  <text stroke="null" x="153.5" y="42.5" font-family="Times New Roman" font-size="20" id="svg_13">0</text>
  <polygon stroke="null" fill="black" points="182.3249969482422,90.95001220703125 190.4040069580078,86.07901000976562 181.48599243164062,81.55300903320312 " id="svg_14"/>
  <path stroke="black" fill="none" d="m336.403,90.472a22.5,22.5 0 1 1 25.82,5.738" id="svg_15"/>
  <text stroke="null" x="359.5" y="43.5" font-family="Times New Roman" font-size="20" id="svg_16">1</text>
  <polygon stroke="null" fill="black" points="362.2229919433594,96.20999145507812 371.52899169921875,94.65798950195312 364.906005859375,87.16598510742188 " id="svg_17"/>
  <polygon stroke="black" id="svg_43" points="82.29346179962158,119.08207702636719 143.06005573272705,119.08207702636719 "/>
  <polygon stroke="null" id="svg_44" points="143.06005573272705,119.08207702636719 134.82072925567627,113.9322509765625 134.82072925567627,124.23210144042969 " fill="black"/>
 </g>
</svg>
