<?xml version="1.0" encoding="UTF-8" standalone="no"?>
<svg
   xmlns:dc="http://purl.org/dc/elements/1.1/"
   xmlns:cc="http://creativecommons.org/ns#"
   xmlns:rdf="http://www.w3.org/1999/02/22-rdf-syntax-ns#"
   xmlns:svg="http://www.w3.org/2000/svg"
   xmlns="http://www.w3.org/2000/svg"
   xmlns:sodipodi="http://sodipodi.sourceforge.net/DTD/sodipodi-0.dtd"
   xmlns:inkscape="http://www.inkscape.org/namespaces/inkscape"
   inkscape:version="1.0 (4035a4fb49, 2020-05-01)"
   sodipodi:docname="Book1.svg"
   viewBox="0 0 176 206.66666"
   height="206.66666"
   width="176"
   xml:space="preserve"
   id="svg10"
   version="1.1"><metadata
     id="metadata16"><rdf:RDF><cc:Work
         rdf:about=""><dc:format>image/svg+xml</dc:format><dc:type
           rdf:resource="http://purl.org/dc/dcmitype/StillImage" /><dc:title></dc:title></cc:Work></rdf:RDF></metadata><defs
     id="defs14"><clipPath
       id="clipPath28"
       clipPathUnits="userSpaceOnUse"><path
         id="path26"
         d="M 51,583 H 182 V 737 H 51 Z" /></clipPath><clipPath
       id="clipPath48"
       clipPathUnits="userSpaceOnUse"><path
         id="path46"
         d="M 51,583 H 182 V 737 H 51 Z" /></clipPath><clipPath
       id="clipPath68"
       clipPathUnits="userSpaceOnUse"><path
         id="path66"
         d="m 51,706 h 131 v 16 H 51 Z" /></clipPath><clipPath
       id="clipPath82"
       clipPathUnits="userSpaceOnUse"><path
         id="path80"
         d="m 51,706 h 131 v 16 H 51 Z" /></clipPath><clipPath
       id="clipPath96"
       clipPathUnits="userSpaceOnUse"><path
         id="path94"
         d="m 51,706 h 131 v 16 H 51 Z" /></clipPath><clipPath
       id="clipPath110"
       clipPathUnits="userSpaceOnUse"><path
         id="path108"
         d="m 51,706 h 131 v 16 H 51 Z" /></clipPath><clipPath
       id="clipPath124"
       clipPathUnits="userSpaceOnUse"><path
         id="path122"
         d="m 51,706 h 131 v 16 H 51 Z" /></clipPath><clipPath
       id="clipPath138"
       clipPathUnits="userSpaceOnUse"><path
         id="path136"
         d="m 51,706 h 131 v 16 H 51 Z" /></clipPath><clipPath
       id="clipPath152"
       clipPathUnits="userSpaceOnUse"><path
         id="path150"
         d="m 51,706 h 131 v 16 H 51 Z" /></clipPath><clipPath
       id="clipPath166"
       clipPathUnits="userSpaceOnUse"><path
         id="path164"
         d="m 51,706 h 131 v 16 H 51 Z" /></clipPath><clipPath
       id="clipPath180"
       clipPathUnits="userSpaceOnUse"><path
         id="path178"
         d="m 51,691 h 131 v 14 H 51 Z" /></clipPath><clipPath
       id="clipPath194"
       clipPathUnits="userSpaceOnUse"><path
         id="path192"
         d="m 51,691 h 131 v 14 H 51 Z" /></clipPath><clipPath
       id="clipPath208"
       clipPathUnits="userSpaceOnUse"><path
         id="path206"
         d="m 51,691 h 131 v 14 H 51 Z" /></clipPath><clipPath
       id="clipPath222"
       clipPathUnits="userSpaceOnUse"><path
         id="path220"
         d="m 51,691 h 131 v 14 H 51 Z" /></clipPath><clipPath
       id="clipPath236"
       clipPathUnits="userSpaceOnUse"><path
         id="path234"
         d="m 51,691 h 131 v 14 H 51 Z" /></clipPath><clipPath
       id="clipPath250"
       clipPathUnits="userSpaceOnUse"><path
         id="path248"
         d="m 51,691 h 131 v 14 H 51 Z" /></clipPath><clipPath
       id="clipPath264"
       clipPathUnits="userSpaceOnUse"><path
         id="path262"
         d="m 51,691 h 131 v 14 H 51 Z" /></clipPath><clipPath
       id="clipPath278"
       clipPathUnits="userSpaceOnUse"><path
         id="path276"
         d="m 51,691 h 131 v 14 H 51 Z" /></clipPath><clipPath
       id="clipPath292"
       clipPathUnits="userSpaceOnUse"><path
         id="path290"
         d="m 51,691 h 131 v 14 H 51 Z" /></clipPath><clipPath
       id="clipPath306"
       clipPathUnits="userSpaceOnUse"><path
         id="path304"
         d="m 51,691 h 131 v 14 H 51 Z" /></clipPath><clipPath
       id="clipPath320"
       clipPathUnits="userSpaceOnUse"><path
         id="path318"
         d="m 51,691 h 131 v 14 H 51 Z" /></clipPath><clipPath
       id="clipPath334"
       clipPathUnits="userSpaceOnUse"><path
         id="path332"
         d="m 51,691 h 131 v 14 H 51 Z" /></clipPath><clipPath
       id="clipPath348"
       clipPathUnits="userSpaceOnUse"><path
         id="path346"
         d="m 51,691 h 131 v 14 H 51 Z" /></clipPath><clipPath
       id="clipPath362"
       clipPathUnits="userSpaceOnUse"><path
         id="path360"
         d="m 51,691 h 131 v 14 H 51 Z" /></clipPath><clipPath
       id="clipPath376"
       clipPathUnits="userSpaceOnUse"><path
         id="path374"
         d="m 51,676 h 131 v 14 H 51 Z" /></clipPath><clipPath
       id="clipPath390"
       clipPathUnits="userSpaceOnUse"><path
         id="path388"
         d="m 51,676 h 131 v 14 H 51 Z" /></clipPath><clipPath
       id="clipPath404"
       clipPathUnits="userSpaceOnUse"><path
         id="path402"
         d="m 51,676 h 131 v 14 H 51 Z" /></clipPath><clipPath
       id="clipPath418"
       clipPathUnits="userSpaceOnUse"><path
         id="path416"
         d="m 51,676 h 131 v 14 H 51 Z" /></clipPath><clipPath
       id="clipPath432"
       clipPathUnits="userSpaceOnUse"><path
         id="path430"
         d="m 51,676 h 131 v 14 H 51 Z" /></clipPath><clipPath
       id="clipPath446"
       clipPathUnits="userSpaceOnUse"><path
         id="path444"
         d="m 51,676 h 131 v 14 H 51 Z" /></clipPath><clipPath
       id="clipPath460"
       clipPathUnits="userSpaceOnUse"><path
         id="path458"
         d="m 51,676 h 131 v 14 H 51 Z" /></clipPath><clipPath
       id="clipPath474"
       clipPathUnits="userSpaceOnUse"><path
         id="path472"
         d="m 51,676 h 131 v 14 H 51 Z" /></clipPath><clipPath
       id="clipPath488"
       clipPathUnits="userSpaceOnUse"><path
         id="path486"
         d="m 51,676 h 131 v 14 H 51 Z" /></clipPath><clipPath
       id="clipPath502"
       clipPathUnits="userSpaceOnUse"><path
         id="path500"
         d="m 51,676 h 131 v 14 H 51 Z" /></clipPath><clipPath
       id="clipPath516"
       clipPathUnits="userSpaceOnUse"><path
         id="path514"
         d="m 51,676 h 131 v 14 H 51 Z" /></clipPath><clipPath
       id="clipPath530"
       clipPathUnits="userSpaceOnUse"><path
         id="path528"
         d="m 51,676 h 131 v 14 H 51 Z" /></clipPath><clipPath
       id="clipPath544"
       clipPathUnits="userSpaceOnUse"><path
         id="path542"
         d="m 51,676 h 131 v 14 H 51 Z" /></clipPath><clipPath
       id="clipPath558"
       clipPathUnits="userSpaceOnUse"><path
         id="path556"
         d="m 51,676 h 131 v 14 H 51 Z" /></clipPath><clipPath
       id="clipPath572"
       clipPathUnits="userSpaceOnUse"><path
         id="path570"
         d="m 51,661 h 131 v 14 H 51 Z" /></clipPath><clipPath
       id="clipPath586"
       clipPathUnits="userSpaceOnUse"><path
         id="path584"
         d="m 51,661 h 131 v 14 H 51 Z" /></clipPath><clipPath
       id="clipPath600"
       clipPathUnits="userSpaceOnUse"><path
         id="path598"
         d="m 51,661 h 131 v 14 H 51 Z" /></clipPath><clipPath
       id="clipPath614"
       clipPathUnits="userSpaceOnUse"><path
         id="path612"
         d="m 51,661 h 131 v 14 H 51 Z" /></clipPath><clipPath
       id="clipPath628"
       clipPathUnits="userSpaceOnUse"><path
         id="path626"
         d="m 51,661 h 131 v 14 H 51 Z" /></clipPath><clipPath
       id="clipPath642"
       clipPathUnits="userSpaceOnUse"><path
         id="path640"
         d="m 51,661 h 131 v 14 H 51 Z" /></clipPath><clipPath
       id="clipPath656"
       clipPathUnits="userSpaceOnUse"><path
         id="path654"
         d="m 51,661 h 131 v 14 H 51 Z" /></clipPath><clipPath
       id="clipPath670"
       clipPathUnits="userSpaceOnUse"><path
         id="path668"
         d="m 51,661 h 131 v 14 H 51 Z" /></clipPath><clipPath
       id="clipPath684"
       clipPathUnits="userSpaceOnUse"><path
         id="path682"
         d="m 51,661 h 131 v 14 H 51 Z" /></clipPath><clipPath
       id="clipPath698"
       clipPathUnits="userSpaceOnUse"><path
         id="path696"
         d="m 51,661 h 131 v 14 H 51 Z" /></clipPath><clipPath
       id="clipPath712"
       clipPathUnits="userSpaceOnUse"><path
         id="path710"
         d="m 51,661 h 131 v 14 H 51 Z" /></clipPath><clipPath
       id="clipPath726"
       clipPathUnits="userSpaceOnUse"><path
         id="path724"
         d="m 51,661 h 131 v 14 H 51 Z" /></clipPath><clipPath
       id="clipPath740"
       clipPathUnits="userSpaceOnUse"><path
         id="path738"
         d="m 51,661 h 131 v 14 H 51 Z" /></clipPath><clipPath
       id="clipPath754"
       clipPathUnits="userSpaceOnUse"><path
         id="path752"
         d="m 51,661 h 131 v 14 H 51 Z" /></clipPath><clipPath
       id="clipPath768"
       clipPathUnits="userSpaceOnUse"><path
         id="path766"
         d="m 51,661 h 131 v 14 H 51 Z" /></clipPath><clipPath
       id="clipPath782"
       clipPathUnits="userSpaceOnUse"><path
         id="path780"
         d="m 51,661 h 131 v 14 H 51 Z" /></clipPath><clipPath
       id="clipPath796"
       clipPathUnits="userSpaceOnUse"><path
         id="path794"
         d="m 51,661 h 131 v 14 H 51 Z" /></clipPath><clipPath
       id="clipPath810"
       clipPathUnits="userSpaceOnUse"><path
         id="path808"
         d="m 51,661 h 131 v 14 H 51 Z" /></clipPath><clipPath
       id="clipPath824"
       clipPathUnits="userSpaceOnUse"><path
         id="path822"
         d="m 51,661 h 131 v 14 H 51 Z" /></clipPath><clipPath
       id="clipPath838"
       clipPathUnits="userSpaceOnUse"><path
         id="path836"
         d="m 51,661 h 131 v 14 H 51 Z" /></clipPath><clipPath
       id="clipPath852"
       clipPathUnits="userSpaceOnUse"><path
         id="path850"
         d="m 51,644 h 131 v 16 H 51 Z" /></clipPath><clipPath
       id="clipPath872"
       clipPathUnits="userSpaceOnUse"><path
         id="path870"
         d="m 51,644 h 131 v 16 H 51 Z" /></clipPath><clipPath
       id="clipPath886"
       clipPathUnits="userSpaceOnUse"><path
         id="path884"
         d="m 51,644 h 131 v 16 H 51 Z" /></clipPath><clipPath
       id="clipPath900"
       clipPathUnits="userSpaceOnUse"><path
         id="path898"
         d="m 51,644 h 131 v 16 H 51 Z" /></clipPath><clipPath
       id="clipPath914"
       clipPathUnits="userSpaceOnUse"><path
         id="path912"
         d="m 51,644 h 131 v 16 H 51 Z" /></clipPath><clipPath
       id="clipPath928"
       clipPathUnits="userSpaceOnUse"><path
         id="path926"
         d="m 51,644 h 131 v 16 H 51 Z" /></clipPath><clipPath
       id="clipPath942"
       clipPathUnits="userSpaceOnUse"><path
         id="path940"
         d="m 51,644 h 131 v 16 H 51 Z" /></clipPath><clipPath
       id="clipPath956"
       clipPathUnits="userSpaceOnUse"><path
         id="path954"
         d="m 51,644 h 131 v 16 H 51 Z" /></clipPath><clipPath
       id="clipPath970"
       clipPathUnits="userSpaceOnUse"><path
         id="path968"
         d="m 51,644 h 131 v 16 H 51 Z" /></clipPath><clipPath
       id="clipPath984"
       clipPathUnits="userSpaceOnUse"><path
         id="path982"
         d="m 51,644 h 131 v 16 H 51 Z" /></clipPath><clipPath
       id="clipPath998"
       clipPathUnits="userSpaceOnUse"><path
         id="path996"
         d="m 51,629 h 131 v 14 H 51 Z" /></clipPath><clipPath
       id="clipPath1018"
       clipPathUnits="userSpaceOnUse"><path
         id="path1016"
         d="m 51,629 h 131 v 14 H 51 Z" /></clipPath><clipPath
       id="clipPath1032"
       clipPathUnits="userSpaceOnUse"><path
         id="path1030"
         d="m 51,629 h 131 v 14 H 51 Z" /></clipPath><clipPath
       id="clipPath1046"
       clipPathUnits="userSpaceOnUse"><path
         id="path1044"
         d="m 51,629 h 131 v 14 H 51 Z" /></clipPath><clipPath
       id="clipPath1060"
       clipPathUnits="userSpaceOnUse"><path
         id="path1058"
         d="m 51,629 h 131 v 14 H 51 Z" /></clipPath><clipPath
       id="clipPath1074"
       clipPathUnits="userSpaceOnUse"><path
         id="path1072"
         d="m 51,629 h 131 v 14 H 51 Z" /></clipPath><clipPath
       id="clipPath1088"
       clipPathUnits="userSpaceOnUse"><path
         id="path1086"
         d="m 51,629 h 131 v 14 H 51 Z" /></clipPath><clipPath
       id="clipPath1102"
       clipPathUnits="userSpaceOnUse"><path
         id="path1100"
         d="m 51,629 h 131 v 14 H 51 Z" /></clipPath><clipPath
       id="clipPath1116"
       clipPathUnits="userSpaceOnUse"><path
         id="path1114"
         d="m 51,629 h 131 v 14 H 51 Z" /></clipPath><clipPath
       id="clipPath1130"
       clipPathUnits="userSpaceOnUse"><path
         id="path1128"
         d="m 51,629 h 131 v 14 H 51 Z" /></clipPath><clipPath
       id="clipPath1144"
       clipPathUnits="userSpaceOnUse"><path
         id="path1142"
         d="m 51,629 h 131 v 14 H 51 Z" /></clipPath><clipPath
       id="clipPath1158"
       clipPathUnits="userSpaceOnUse"><path
         id="path1156"
         d="m 51,629 h 131 v 14 H 51 Z" /></clipPath><clipPath
       id="clipPath1172"
       clipPathUnits="userSpaceOnUse"><path
         id="path1170"
         d="m 51,629 h 131 v 14 H 51 Z" /></clipPath><clipPath
       id="clipPath1186"
       clipPathUnits="userSpaceOnUse"><path
         id="path1184"
         d="m 51,629 h 131 v 14 H 51 Z" /></clipPath><clipPath
       id="clipPath1200"
       clipPathUnits="userSpaceOnUse"><path
         id="path1198"
         d="m 51,629 h 131 v 14 H 51 Z" /></clipPath><clipPath
       id="clipPath1214"
       clipPathUnits="userSpaceOnUse"><path
         id="path1212"
         d="m 51,629 h 131 v 14 H 51 Z" /></clipPath><clipPath
       id="clipPath1228"
       clipPathUnits="userSpaceOnUse"><path
         id="path1226"
         d="m 51,614 h 131 v 14 H 51 Z" /></clipPath><clipPath
       id="clipPath1248"
       clipPathUnits="userSpaceOnUse"><path
         id="path1246"
         d="m 51,614 h 131 v 14 H 51 Z" /></clipPath><clipPath
       id="clipPath1262"
       clipPathUnits="userSpaceOnUse"><path
         id="path1260"
         d="m 51,614 h 131 v 14 H 51 Z" /></clipPath><clipPath
       id="clipPath1276"
       clipPathUnits="userSpaceOnUse"><path
         id="path1274"
         d="m 51,614 h 131 v 14 H 51 Z" /></clipPath><clipPath
       id="clipPath1290"
       clipPathUnits="userSpaceOnUse"><path
         id="path1288"
         d="m 51,614 h 131 v 14 H 51 Z" /></clipPath><clipPath
       id="clipPath1304"
       clipPathUnits="userSpaceOnUse"><path
         id="path1302"
         d="m 51,614 h 131 v 14 H 51 Z" /></clipPath><clipPath
       id="clipPath1318"
       clipPathUnits="userSpaceOnUse"><path
         id="path1316"
         d="m 51,614 h 131 v 14 H 51 Z" /></clipPath><clipPath
       id="clipPath1332"
       clipPathUnits="userSpaceOnUse"><path
         id="path1330"
         d="m 51,614 h 131 v 14 H 51 Z" /></clipPath><clipPath
       id="clipPath1346"
       clipPathUnits="userSpaceOnUse"><path
         id="path1344"
         d="m 51,614 h 131 v 14 H 51 Z" /></clipPath><clipPath
       id="clipPath1360"
       clipPathUnits="userSpaceOnUse"><path
         id="path1358"
         d="m 51,614 h 131 v 14 H 51 Z" /></clipPath><clipPath
       id="clipPath1374"
       clipPathUnits="userSpaceOnUse"><path
         id="path1372"
         d="m 51,614 h 131 v 14 H 51 Z" /></clipPath><clipPath
       id="clipPath1388"
       clipPathUnits="userSpaceOnUse"><path
         id="path1386"
         d="m 51,614 h 131 v 14 H 51 Z" /></clipPath><clipPath
       id="clipPath1402"
       clipPathUnits="userSpaceOnUse"><path
         id="path1400"
         d="m 51,614 h 131 v 14 H 51 Z" /></clipPath><clipPath
       id="clipPath1416"
       clipPathUnits="userSpaceOnUse"><path
         id="path1414"
         d="m 51,614 h 131 v 14 H 51 Z" /></clipPath><clipPath
       id="clipPath1430"
       clipPathUnits="userSpaceOnUse"><path
         id="path1428"
         d="m 51,614 h 131 v 14 H 51 Z" /></clipPath><clipPath
       id="clipPath1444"
       clipPathUnits="userSpaceOnUse"><path
         id="path1442"
         d="m 51,614 h 131 v 14 H 51 Z" /></clipPath><clipPath
       id="clipPath1458"
       clipPathUnits="userSpaceOnUse"><path
         id="path1456"
         d="m 51,599 h 131 v 14 H 51 Z" /></clipPath><clipPath
       id="clipPath1478"
       clipPathUnits="userSpaceOnUse"><path
         id="path1476"
         d="m 51,599 h 131 v 14 H 51 Z" /></clipPath><clipPath
       id="clipPath1492"
       clipPathUnits="userSpaceOnUse"><path
         id="path1490"
         d="m 51,599 h 131 v 14 H 51 Z" /></clipPath><clipPath
       id="clipPath1506"
       clipPathUnits="userSpaceOnUse"><path
         id="path1504"
         d="m 51,599 h 131 v 14 H 51 Z" /></clipPath><clipPath
       id="clipPath1520"
       clipPathUnits="userSpaceOnUse"><path
         id="path1518"
         d="m 51,599 h 131 v 14 H 51 Z" /></clipPath><clipPath
       id="clipPath1534"
       clipPathUnits="userSpaceOnUse"><path
         id="path1532"
         d="m 51,599 h 131 v 14 H 51 Z" /></clipPath><clipPath
       id="clipPath1548"
       clipPathUnits="userSpaceOnUse"><path
         id="path1546"
         d="m 51,599 h 131 v 14 H 51 Z" /></clipPath><clipPath
       id="clipPath1562"
       clipPathUnits="userSpaceOnUse"><path
         id="path1560"
         d="m 51,599 h 131 v 14 H 51 Z" /></clipPath><clipPath
       id="clipPath1576"
       clipPathUnits="userSpaceOnUse"><path
         id="path1574"
         d="m 51,599 h 131 v 14 H 51 Z" /></clipPath><clipPath
       id="clipPath1590"
       clipPathUnits="userSpaceOnUse"><path
         id="path1588"
         d="m 51,599 h 131 v 14 H 51 Z" /></clipPath><clipPath
       id="clipPath1604"
       clipPathUnits="userSpaceOnUse"><path
         id="path1602"
         d="m 51,599 h 131 v 14 H 51 Z" /></clipPath><clipPath
       id="clipPath1618"
       clipPathUnits="userSpaceOnUse"><path
         id="path1616"
         d="m 51,599 h 131 v 14 H 51 Z" /></clipPath><clipPath
       id="clipPath1632"
       clipPathUnits="userSpaceOnUse"><path
         id="path1630"
         d="m 51,599 h 131 v 14 H 51 Z" /></clipPath><clipPath
       id="clipPath1646"
       clipPathUnits="userSpaceOnUse"><path
         id="path1644"
         d="m 51,599 h 131 v 14 H 51 Z" /></clipPath><clipPath
       id="clipPath1660"
       clipPathUnits="userSpaceOnUse"><path
         id="path1658"
         d="m 51,599 h 131 v 14 H 51 Z" /></clipPath><clipPath
       id="clipPath1674"
       clipPathUnits="userSpaceOnUse"><path
         id="path1672"
         d="m 51,599 h 131 v 14 H 51 Z" /></clipPath><clipPath
       id="clipPath1688"
       clipPathUnits="userSpaceOnUse"><path
         id="path1686"
         d="m 51,599 h 131 v 14 H 51 Z" /></clipPath><clipPath
       id="clipPath1702"
       clipPathUnits="userSpaceOnUse"><path
         id="path1700"
         d="m 51,599 h 131 v 14 H 51 Z" /></clipPath><clipPath
       id="clipPath1716"
       clipPathUnits="userSpaceOnUse"><path
         id="path1714"
         d="m 51,599 h 131 v 14 H 51 Z" /></clipPath><clipPath
       id="clipPath1730"
       clipPathUnits="userSpaceOnUse"><path
         id="path1728"
         d="m 51,599 h 131 v 14 H 51 Z" /></clipPath><clipPath
       id="clipPath1744"
       clipPathUnits="userSpaceOnUse"><path
         id="path1742"
         d="m 51,599 h 131 v 14 H 51 Z" /></clipPath><clipPath
       id="clipPath1758"
       clipPathUnits="userSpaceOnUse"><path
         id="path1756"
         d="m 51,599 h 131 v 14 H 51 Z" /></clipPath><clipPath
       id="clipPath1772"
       clipPathUnits="userSpaceOnUse"><path
         id="path1770"
         d="M 51,583 H 182 V 737 H 51 Z" /></clipPath><clipPath
       id="clipPath1786"
       clipPathUnits="userSpaceOnUse"><path
         id="path1784"
         d="M 51,583 H 182 V 737 H 51 Z" /></clipPath><clipPath
       id="clipPath1800"
       clipPathUnits="userSpaceOnUse"><path
         id="path1798"
         d="M 51,583 H 182 V 737 H 51 Z" /></clipPath><clipPath
       id="clipPath1814"
       clipPathUnits="userSpaceOnUse"><path
         id="path1812"
         d="M 49,580 H 185 V 739 H 49 Z" /></clipPath><clipPath
       id="clipPath1824"
       clipPathUnits="userSpaceOnUse"><path
         id="path1822"
         d="M 49,580 H 185 V 739 H 49 Z" /></clipPath></defs><sodipodi:namedview
     inkscape:current-layer="g18"
     inkscape:window-maximized="1"
     inkscape:window-y="-8"
     inkscape:window-x="-8"
     inkscape:cy="455.99997"
     inkscape:cx="341.33334"
     inkscape:zoom="0.59469697"
     fit-margin-bottom="0"
     fit-margin-right="0"
     fit-margin-left="0"
     fit-margin-top="0"
     showgrid="false"
     id="namedview12"
     inkscape:window-height="837"
     inkscape:window-width="1440"
     inkscape:pageshadow="2"
     inkscape:pageopacity="0"
     guidetolerance="10"
     gridtolerance="10"
     objecttolerance="10"
     borderopacity="1"
     bordercolor="#666666"
     pagecolor="#ffffff" /><g
     transform="matrix(1.3333333,0,0,-1.3333333,-66.666665,983.99998)"
     inkscape:label="Book1"
     inkscape:groupmode="layer"
     id="g18"><g
       id="g20" /><g
       id="g22"><g
         clip-path="url(#clipPath28)"
         id="g24"><g
           transform="translate(116,726)"
           id="g30"><text
             id="text34"
             style="font-variant:normal;font-weight:normal;font-size:11px;font-family:Arial;-inkscape-font-specification:ArialMT;writing-mode:lr-tb;fill:#000000;fill-opacity:1;fill-rule:nonzero;stroke:none"
             transform="scale(1,-1)"><tspan
               id="tspan32"
               y="0"
               x="0">0</tspan></text></g><g
           transform="translate(122,726)"
           id="g36"><text
             id="text40"
             style="font-variant:normal;font-weight:normal;font-size:11px;font-family:'Cambria Math';-inkscape-font-specification:CambriaMath;writing-mode:lr-tb;fill:#000000;fill-opacity:1;fill-rule:nonzero;stroke:none"
             transform="scale(1,-1)"><tspan
               id="tspan38"
               y="0"
               x="0">𝜺</tspan></text></g></g></g><g
       id="g42"><g
         clip-path="url(#clipPath48)"
         id="g44"><g
           transform="translate(155,726)"
           id="g50"><text
             id="text54"
             style="font-variant:normal;font-weight:normal;font-size:11px;font-family:Arial;-inkscape-font-specification:ArialMT;writing-mode:lr-tb;fill:#000000;fill-opacity:1;fill-rule:nonzero;stroke:none"
             transform="scale(1,-1)"><tspan
               id="tspan52"
               y="0"
               x="0">1</tspan></text></g><g
           transform="translate(161,726)"
           id="g56"><text
             id="text60"
             style="font-variant:normal;font-weight:normal;font-size:11px;font-family:'Cambria Math';-inkscape-font-specification:CambriaMath;writing-mode:lr-tb;fill:#000000;fill-opacity:1;fill-rule:nonzero;stroke:none"
             transform="scale(1,-1)"><tspan
               id="tspan58"
               y="0"
               x="0">𝜺</tspan></text></g></g></g><g
       id="g62"><g
         clip-path="url(#clipPath68)"
         id="g64"><g
           transform="translate(67,711)"
           id="g70"><text
             id="text74"
             style="font-variant:normal;font-weight:normal;font-size:12px;font-family:Calibri;-inkscape-font-specification:Calibri;writing-mode:lr-tb;fill:#000000;fill-opacity:1;fill-rule:nonzero;stroke:none"
             transform="scale(1,-1)"><tspan
               id="tspan72"
               sodipodi:role="line"
               y="0"
               x="0 11.0004">→q</tspan></text></g></g></g><g
       id="g76"><g
         clip-path="url(#clipPath82)"
         id="g78"><g
           transform="translate(84,709)"
           id="g84"><text
             id="text88"
             style="font-variant:normal;font-weight:normal;font-size:8px;font-family:Calibri;-inkscape-font-specification:Calibri;writing-mode:lr-tb;fill:#000000;fill-opacity:1;fill-rule:nonzero;stroke:none"
             transform="scale(1,-1)"><tspan
               id="tspan86"
               y="0"
               x="0">1</tspan></text></g></g></g><g
       id="g90"><g
         clip-path="url(#clipPath96)"
         id="g92"><g
           transform="translate(117,711)"
           id="g98"><text
             id="text102"
             style="font-variant:normal;font-weight:normal;font-size:12px;font-family:Calibri;-inkscape-font-specification:Calibri;writing-mode:lr-tb;fill:#000000;fill-opacity:1;fill-rule:nonzero;stroke:none"
             transform="scale(1,-1)"><tspan
               id="tspan100"
               y="0"
               x="0">q</tspan></text></g></g></g><g
       id="g104"><g
         clip-path="url(#clipPath110)"
         id="g106"><g
           transform="translate(123,709)"
           id="g112"><text
             id="text116"
             style="font-variant:normal;font-weight:normal;font-size:8px;font-family:Calibri;-inkscape-font-specification:Calibri;writing-mode:lr-tb;fill:#000000;fill-opacity:1;fill-rule:nonzero;stroke:none"
             transform="scale(1,-1)"><tspan
               id="tspan114"
               sodipodi:role="line"
               y="0"
               x="0 4">1 </tspan></text></g></g></g><g
       id="g118"><g
         clip-path="url(#clipPath124)"
         id="g120"><g
           transform="translate(151,710)"
           id="g126"><text
             id="text130"
             style="font-variant:normal;font-weight:normal;font-size:11px;font-family:Arial;-inkscape-font-specification:ArialMT;writing-mode:lr-tb;fill:#000000;fill-opacity:1;fill-rule:nonzero;stroke:none"
             transform="scale(1,-1)"><tspan
               id="tspan128"
               y="0"
               x="0">q</tspan></text></g></g></g><g
       id="g132"><g
         clip-path="url(#clipPath138)"
         id="g134"><g
           transform="translate(157,709)"
           id="g140"><text
             id="text144"
             style="font-variant:normal;font-weight:normal;font-size:5px;font-family:Arial;-inkscape-font-specification:ArialMT;writing-mode:lr-tb;fill:#000000;fill-opacity:1;fill-rule:nonzero;stroke:none"
             transform="scale(1,-1)"><tspan
               id="tspan142"
               y="0"
               x="0">1</tspan></text></g></g></g><g
       id="g146"><g
         clip-path="url(#clipPath152)"
         id="g148"><g
           transform="translate(160,710)"
           id="g154"><text
             id="text158"
             style="font-variant:normal;font-weight:normal;font-size:11px;font-family:Arial;-inkscape-font-specification:ArialMT;writing-mode:lr-tb;fill:#000000;fill-opacity:1;fill-rule:nonzero;stroke:none"
             transform="scale(1,-1)"><tspan
               id="tspan156"
               y="0"
               x="0">q</tspan></text></g></g></g><g
       id="g160"><g
         clip-path="url(#clipPath166)"
         id="g162"><g
           transform="translate(166,709)"
           id="g168"><text
             id="text172"
             style="font-variant:normal;font-weight:normal;font-size:5px;font-family:Arial;-inkscape-font-specification:ArialMT;writing-mode:lr-tb;fill:#000000;fill-opacity:1;fill-rule:nonzero;stroke:none"
             transform="scale(1,-1)"><tspan
               id="tspan170"
               y="0"
               x="0">2</tspan></text></g></g></g><g
       id="g174"><g
         clip-path="url(#clipPath180)"
         id="g176"><g
           transform="translate(69,694)"
           id="g182"><text
             id="text186"
             style="font-variant:normal;font-weight:normal;font-size:11px;font-family:Arial;-inkscape-font-specification:ArialMT;writing-mode:lr-tb;fill:#000000;fill-opacity:1;fill-rule:nonzero;stroke:none"
             transform="scale(1,-1)"><tspan
               id="tspan184"
               y="0"
               x="0">q</tspan></text></g></g></g><g
       id="g188"><g
         clip-path="url(#clipPath194)"
         id="g190"><g
           transform="translate(75,693)"
           id="g196"><text
             id="text200"
             style="font-variant:normal;font-weight:normal;font-size:5px;font-family:Arial;-inkscape-font-specification:ArialMT;writing-mode:lr-tb;fill:#000000;fill-opacity:1;fill-rule:nonzero;stroke:none"
             transform="scale(1,-1)"><tspan
               id="tspan198"
               y="0"
               x="0">1</tspan></text></g></g></g><g
       id="g202"><g
         clip-path="url(#clipPath208)"
         id="g204"><g
           transform="translate(78,694)"
           id="g210"><text
             id="text214"
             style="font-variant:normal;font-weight:normal;font-size:11px;font-family:Arial;-inkscape-font-specification:ArialMT;writing-mode:lr-tb;fill:#000000;fill-opacity:1;fill-rule:nonzero;stroke:none"
             transform="scale(1,-1)"><tspan
               id="tspan212"
               y="0"
               x="0">q</tspan></text></g></g></g><g
       id="g216"><g
         clip-path="url(#clipPath222)"
         id="g218"><g
           transform="translate(84,693)"
           id="g224"><text
             id="text228"
             style="font-variant:normal;font-weight:normal;font-size:5px;font-family:Arial;-inkscape-font-specification:ArialMT;writing-mode:lr-tb;fill:#000000;fill-opacity:1;fill-rule:nonzero;stroke:none"
             transform="scale(1,-1)"><tspan
               id="tspan226"
               y="0"
               x="0">2</tspan></text></g></g></g><g
       id="g230"><g
         clip-path="url(#clipPath236)"
         id="g232"><g
           transform="translate(113,694)"
           id="g238"><text
             id="text242"
             style="font-variant:normal;font-weight:normal;font-size:11px;font-family:Arial;-inkscape-font-specification:ArialMT;writing-mode:lr-tb;fill:#000000;fill-opacity:1;fill-rule:nonzero;stroke:none"
             transform="scale(1,-1)"><tspan
               id="tspan240"
               y="0"
               x="0">q</tspan></text></g></g></g><g
       id="g244"><g
         clip-path="url(#clipPath250)"
         id="g246"><g
           transform="translate(119,693)"
           id="g252"><text
             id="text256"
             style="font-variant:normal;font-weight:normal;font-size:5px;font-family:Arial;-inkscape-font-specification:ArialMT;writing-mode:lr-tb;fill:#000000;fill-opacity:1;fill-rule:nonzero;stroke:none"
             transform="scale(1,-1)"><tspan
               id="tspan254"
               y="0"
               x="0">1</tspan></text></g></g></g><g
       id="g258"><g
         clip-path="url(#clipPath264)"
         id="g260"><g
           transform="translate(122,694)"
           id="g266"><text
             id="text270"
             style="font-variant:normal;font-weight:normal;font-size:11px;font-family:Arial;-inkscape-font-specification:ArialMT;writing-mode:lr-tb;fill:#000000;fill-opacity:1;fill-rule:nonzero;stroke:none"
             transform="scale(1,-1)"><tspan
               id="tspan268"
               y="0"
               x="0">q</tspan></text></g></g></g><g
       id="g272"><g
         clip-path="url(#clipPath278)"
         id="g274"><g
           transform="translate(128,693)"
           id="g280"><text
             id="text284"
             style="font-variant:normal;font-weight:normal;font-size:5px;font-family:Arial;-inkscape-font-specification:ArialMT;writing-mode:lr-tb;fill:#000000;fill-opacity:1;fill-rule:nonzero;stroke:none"
             transform="scale(1,-1)"><tspan
               id="tspan282"
               y="0"
               x="0">3</tspan></text></g></g></g><g
       id="g286"><g
         clip-path="url(#clipPath292)"
         id="g288"><g
           transform="translate(147,694)"
           id="g294"><text
             id="text298"
             style="font-variant:normal;font-weight:normal;font-size:11px;font-family:Arial;-inkscape-font-specification:ArialMT;writing-mode:lr-tb;fill:#000000;fill-opacity:1;fill-rule:nonzero;stroke:none"
             transform="scale(1,-1)"><tspan
               id="tspan296"
               y="0"
               x="0">q</tspan></text></g></g></g><g
       id="g300"><g
         clip-path="url(#clipPath306)"
         id="g302"><g
           transform="translate(153,693)"
           id="g308"><text
             id="text312"
             style="font-variant:normal;font-weight:normal;font-size:5px;font-family:Arial;-inkscape-font-specification:ArialMT;writing-mode:lr-tb;fill:#000000;fill-opacity:1;fill-rule:nonzero;stroke:none"
             transform="scale(1,-1)"><tspan
               id="tspan310"
               y="0"
               x="0">1</tspan></text></g></g></g><g
       id="g314"><g
         clip-path="url(#clipPath320)"
         id="g316"><g
           transform="translate(156,694)"
           id="g322"><text
             id="text326"
             style="font-variant:normal;font-weight:normal;font-size:11px;font-family:Arial;-inkscape-font-specification:ArialMT;writing-mode:lr-tb;fill:#000000;fill-opacity:1;fill-rule:nonzero;stroke:none"
             transform="scale(1,-1)"><tspan
               id="tspan324"
               y="0"
               x="0">q</tspan></text></g></g></g><g
       id="g328"><g
         clip-path="url(#clipPath334)"
         id="g330"><g
           transform="translate(162,693)"
           id="g336"><text
             id="text340"
             style="font-variant:normal;font-weight:normal;font-size:5px;font-family:Arial;-inkscape-font-specification:ArialMT;writing-mode:lr-tb;fill:#000000;fill-opacity:1;fill-rule:nonzero;stroke:none"
             transform="scale(1,-1)"><tspan
               id="tspan338"
               y="0"
               x="0">2</tspan></text></g></g></g><g
       id="g342"><g
         clip-path="url(#clipPath348)"
         id="g344"><g
           transform="translate(165,694)"
           id="g350"><text
             id="text354"
             style="font-variant:normal;font-weight:normal;font-size:11px;font-family:Arial;-inkscape-font-specification:ArialMT;writing-mode:lr-tb;fill:#000000;fill-opacity:1;fill-rule:nonzero;stroke:none"
             transform="scale(1,-1)"><tspan
               id="tspan352"
               y="0"
               x="0">q</tspan></text></g></g></g><g
       id="g356"><g
         clip-path="url(#clipPath362)"
         id="g358"><g
           transform="translate(171,693)"
           id="g364"><text
             id="text368"
             style="font-variant:normal;font-weight:normal;font-size:5px;font-family:Arial;-inkscape-font-specification:ArialMT;writing-mode:lr-tb;fill:#000000;fill-opacity:1;fill-rule:nonzero;stroke:none"
             transform="scale(1,-1)"><tspan
               id="tspan366"
               y="0"
               x="0">3</tspan></text></g></g></g><g
       id="g370"><g
         clip-path="url(#clipPath376)"
         id="g372"><g
           transform="translate(69,679)"
           id="g378"><text
             id="text382"
             style="font-variant:normal;font-weight:normal;font-size:11px;font-family:Arial;-inkscape-font-specification:ArialMT;writing-mode:lr-tb;fill:#000000;fill-opacity:1;fill-rule:nonzero;stroke:none"
             transform="scale(1,-1)"><tspan
               id="tspan380"
               y="0"
               x="0">q</tspan></text></g></g></g><g
       id="g384"><g
         clip-path="url(#clipPath390)"
         id="g386"><g
           transform="translate(75,678)"
           id="g392"><text
             id="text396"
             style="font-variant:normal;font-weight:normal;font-size:5px;font-family:Arial;-inkscape-font-specification:ArialMT;writing-mode:lr-tb;fill:#000000;fill-opacity:1;fill-rule:nonzero;stroke:none"
             transform="scale(1,-1)"><tspan
               id="tspan394"
               y="0"
               x="0">1</tspan></text></g></g></g><g
       id="g398"><g
         clip-path="url(#clipPath404)"
         id="g400"><g
           transform="translate(78,679)"
           id="g406"><text
             id="text410"
             style="font-variant:normal;font-weight:normal;font-size:11px;font-family:Arial;-inkscape-font-specification:ArialMT;writing-mode:lr-tb;fill:#000000;fill-opacity:1;fill-rule:nonzero;stroke:none"
             transform="scale(1,-1)"><tspan
               id="tspan408"
               y="0"
               x="0">q</tspan></text></g></g></g><g
       id="g412"><g
         clip-path="url(#clipPath418)"
         id="g414"><g
           transform="translate(84,678)"
           id="g420"><text
             id="text424"
             style="font-variant:normal;font-weight:normal;font-size:5px;font-family:Arial;-inkscape-font-specification:ArialMT;writing-mode:lr-tb;fill:#000000;fill-opacity:1;fill-rule:nonzero;stroke:none"
             transform="scale(1,-1)"><tspan
               id="tspan422"
               y="0"
               x="0">3</tspan></text></g></g></g><g
       id="g426"><g
         clip-path="url(#clipPath432)"
         id="g428"><g
           transform="translate(113,679)"
           id="g434"><text
             id="text438"
             style="font-variant:normal;font-weight:normal;font-size:11px;font-family:Arial;-inkscape-font-specification:ArialMT;writing-mode:lr-tb;fill:#000000;fill-opacity:1;fill-rule:nonzero;stroke:none"
             transform="scale(1,-1)"><tspan
               id="tspan436"
               y="0"
               x="0">q</tspan></text></g></g></g><g
       id="g440"><g
         clip-path="url(#clipPath446)"
         id="g442"><g
           transform="translate(119,678)"
           id="g448"><text
             id="text452"
             style="font-variant:normal;font-weight:normal;font-size:5px;font-family:Arial;-inkscape-font-specification:ArialMT;writing-mode:lr-tb;fill:#000000;fill-opacity:1;fill-rule:nonzero;stroke:none"
             transform="scale(1,-1)"><tspan
               id="tspan450"
               y="0"
               x="0">1</tspan></text></g></g></g><g
       id="g454"><g
         clip-path="url(#clipPath460)"
         id="g456"><g
           transform="translate(122,679)"
           id="g462"><text
             id="text466"
             style="font-variant:normal;font-weight:normal;font-size:11px;font-family:Arial;-inkscape-font-specification:ArialMT;writing-mode:lr-tb;fill:#000000;fill-opacity:1;fill-rule:nonzero;stroke:none"
             transform="scale(1,-1)"><tspan
               id="tspan464"
               y="0"
               x="0">q</tspan></text></g></g></g><g
       id="g468"><g
         clip-path="url(#clipPath474)"
         id="g470"><g
           transform="translate(128,678)"
           id="g476"><text
             id="text480"
             style="font-variant:normal;font-weight:normal;font-size:5px;font-family:Arial;-inkscape-font-specification:ArialMT;writing-mode:lr-tb;fill:#000000;fill-opacity:1;fill-rule:nonzero;stroke:none"
             transform="scale(1,-1)"><tspan
               id="tspan478"
               y="0"
               x="0">4</tspan></text></g></g></g><g
       id="g482"><g
         clip-path="url(#clipPath488)"
         id="g484"><g
           transform="translate(147,679)"
           id="g490"><text
             id="text494"
             style="font-variant:normal;font-weight:normal;font-size:11px;font-family:Arial;-inkscape-font-specification:ArialMT;writing-mode:lr-tb;fill:#000000;fill-opacity:1;fill-rule:nonzero;stroke:none"
             transform="scale(1,-1)"><tspan
               id="tspan492"
               y="0"
               x="0">q</tspan></text></g></g></g><g
       id="g496"><g
         clip-path="url(#clipPath502)"
         id="g498"><g
           transform="translate(153,678)"
           id="g504"><text
             id="text508"
             style="font-variant:normal;font-weight:normal;font-size:5px;font-family:Arial;-inkscape-font-specification:ArialMT;writing-mode:lr-tb;fill:#000000;fill-opacity:1;fill-rule:nonzero;stroke:none"
             transform="scale(1,-1)"><tspan
               id="tspan506"
               y="0"
               x="0">1</tspan></text></g></g></g><g
       id="g510"><g
         clip-path="url(#clipPath516)"
         id="g512"><g
           transform="translate(156,679)"
           id="g518"><text
             id="text522"
             style="font-variant:normal;font-weight:normal;font-size:11px;font-family:Arial;-inkscape-font-specification:ArialMT;writing-mode:lr-tb;fill:#000000;fill-opacity:1;fill-rule:nonzero;stroke:none"
             transform="scale(1,-1)"><tspan
               id="tspan520"
               y="0"
               x="0">q</tspan></text></g></g></g><g
       id="g524"><g
         clip-path="url(#clipPath530)"
         id="g526"><g
           transform="translate(162,678)"
           id="g532"><text
             id="text536"
             style="font-variant:normal;font-weight:normal;font-size:5px;font-family:Arial;-inkscape-font-specification:ArialMT;writing-mode:lr-tb;fill:#000000;fill-opacity:1;fill-rule:nonzero;stroke:none"
             transform="scale(1,-1)"><tspan
               id="tspan534"
               y="0"
               x="0">2</tspan></text></g></g></g><g
       id="g538"><g
         clip-path="url(#clipPath544)"
         id="g540"><g
           transform="translate(165,679)"
           id="g546"><text
             id="text550"
             style="font-variant:normal;font-weight:normal;font-size:11px;font-family:Arial;-inkscape-font-specification:ArialMT;writing-mode:lr-tb;fill:#000000;fill-opacity:1;fill-rule:nonzero;stroke:none"
             transform="scale(1,-1)"><tspan
               id="tspan548"
               y="0"
               x="0">q</tspan></text></g></g></g><g
       id="g552"><g
         clip-path="url(#clipPath558)"
         id="g554"><g
           transform="translate(171,678)"
           id="g560"><text
             id="text564"
             style="font-variant:normal;font-weight:normal;font-size:5px;font-family:Arial;-inkscape-font-specification:ArialMT;writing-mode:lr-tb;fill:#000000;fill-opacity:1;fill-rule:nonzero;stroke:none"
             transform="scale(1,-1)"><tspan
               id="tspan562"
               y="0"
               x="0">4</tspan></text></g></g></g><g
       id="g566"><g
         clip-path="url(#clipPath572)"
         id="g568"><g
           transform="translate(64,664)"
           id="g574"><text
             id="text578"
             style="font-variant:normal;font-weight:normal;font-size:11px;font-family:Arial;-inkscape-font-specification:ArialMT;writing-mode:lr-tb;fill:#000000;fill-opacity:1;fill-rule:nonzero;stroke:none"
             transform="scale(1,-1)"><tspan
               id="tspan576"
               y="0"
               x="0">q</tspan></text></g></g></g><g
       id="g580"><g
         clip-path="url(#clipPath586)"
         id="g582"><g
           transform="translate(70,663)"
           id="g588"><text
             id="text592"
             style="font-variant:normal;font-weight:normal;font-size:5px;font-family:Arial;-inkscape-font-specification:ArialMT;writing-mode:lr-tb;fill:#000000;fill-opacity:1;fill-rule:nonzero;stroke:none"
             transform="scale(1,-1)"><tspan
               id="tspan590"
               y="0"
               x="0">1</tspan></text></g></g></g><g
       id="g594"><g
         clip-path="url(#clipPath600)"
         id="g596"><g
           transform="translate(73,664)"
           id="g602"><text
             id="text606"
             style="font-variant:normal;font-weight:normal;font-size:11px;font-family:Arial;-inkscape-font-specification:ArialMT;writing-mode:lr-tb;fill:#000000;fill-opacity:1;fill-rule:nonzero;stroke:none"
             transform="scale(1,-1)"><tspan
               id="tspan604"
               y="0"
               x="0">q</tspan></text></g></g></g><g
       id="g608"><g
         clip-path="url(#clipPath614)"
         id="g610"><g
           transform="translate(79,663)"
           id="g616"><text
             id="text620"
             style="font-variant:normal;font-weight:normal;font-size:5px;font-family:Arial;-inkscape-font-specification:ArialMT;writing-mode:lr-tb;fill:#000000;fill-opacity:1;fill-rule:nonzero;stroke:none"
             transform="scale(1,-1)"><tspan
               id="tspan618"
               y="0"
               x="0">2</tspan></text></g></g></g><g
       id="g622"><g
         clip-path="url(#clipPath628)"
         id="g624"><g
           transform="translate(82,664)"
           id="g630"><text
             id="text634"
             style="font-variant:normal;font-weight:normal;font-size:11px;font-family:Arial;-inkscape-font-specification:ArialMT;writing-mode:lr-tb;fill:#000000;fill-opacity:1;fill-rule:nonzero;stroke:none"
             transform="scale(1,-1)"><tspan
               id="tspan632"
               y="0"
               x="0">q</tspan></text></g></g></g><g
       id="g636"><g
         clip-path="url(#clipPath642)"
         id="g638"><g
           transform="translate(88,663)"
           id="g644"><text
             id="text648"
             style="font-variant:normal;font-weight:normal;font-size:5px;font-family:Arial;-inkscape-font-specification:ArialMT;writing-mode:lr-tb;fill:#000000;fill-opacity:1;fill-rule:nonzero;stroke:none"
             transform="scale(1,-1)"><tspan
               id="tspan646"
               y="0"
               x="0">3</tspan></text></g></g></g><g
       id="g650"><g
         clip-path="url(#clipPath656)"
         id="g652"><g
           transform="translate(108,664)"
           id="g658"><text
             id="text662"
             style="font-variant:normal;font-weight:normal;font-size:11px;font-family:Arial;-inkscape-font-specification:ArialMT;writing-mode:lr-tb;fill:#000000;fill-opacity:1;fill-rule:nonzero;stroke:none"
             transform="scale(1,-1)"><tspan
               id="tspan660"
               y="0"
               x="0">q</tspan></text></g></g></g><g
       id="g664"><g
         clip-path="url(#clipPath670)"
         id="g666"><g
           transform="translate(114,663)"
           id="g672"><text
             id="text676"
             style="font-variant:normal;font-weight:normal;font-size:5px;font-family:Arial;-inkscape-font-specification:ArialMT;writing-mode:lr-tb;fill:#000000;fill-opacity:1;fill-rule:nonzero;stroke:none"
             transform="scale(1,-1)"><tspan
               id="tspan674"
               y="0"
               x="0">1</tspan></text></g></g></g><g
       id="g678"><g
         clip-path="url(#clipPath684)"
         id="g680"><g
           transform="translate(117,664)"
           id="g686"><text
             id="text690"
             style="font-variant:normal;font-weight:normal;font-size:11px;font-family:Arial;-inkscape-font-specification:ArialMT;writing-mode:lr-tb;fill:#000000;fill-opacity:1;fill-rule:nonzero;stroke:none"
             transform="scale(1,-1)"><tspan
               id="tspan688"
               y="0"
               x="0">q</tspan></text></g></g></g><g
       id="g692"><g
         clip-path="url(#clipPath698)"
         id="g694"><g
           transform="translate(123,663)"
           id="g700"><text
             id="text704"
             style="font-variant:normal;font-weight:normal;font-size:5px;font-family:Arial;-inkscape-font-specification:ArialMT;writing-mode:lr-tb;fill:#000000;fill-opacity:1;fill-rule:nonzero;stroke:none"
             transform="scale(1,-1)"><tspan
               id="tspan702"
               y="0"
               x="0">3</tspan></text></g></g></g><g
       id="g706"><g
         clip-path="url(#clipPath712)"
         id="g708"><g
           transform="translate(126,664)"
           id="g714"><text
             id="text718"
             style="font-variant:normal;font-weight:normal;font-size:11px;font-family:Arial;-inkscape-font-specification:ArialMT;writing-mode:lr-tb;fill:#000000;fill-opacity:1;fill-rule:nonzero;stroke:none"
             transform="scale(1,-1)"><tspan
               id="tspan716"
               y="0"
               x="0">q</tspan></text></g></g></g><g
       id="g720"><g
         clip-path="url(#clipPath726)"
         id="g722"><g
           transform="translate(132,663)"
           id="g728"><text
             id="text732"
             style="font-variant:normal;font-weight:normal;font-size:5px;font-family:Arial;-inkscape-font-specification:ArialMT;writing-mode:lr-tb;fill:#000000;fill-opacity:1;fill-rule:nonzero;stroke:none"
             transform="scale(1,-1)"><tspan
               id="tspan730"
               y="0"
               x="0">4</tspan></text></g></g></g><g
       id="g734"><g
         clip-path="url(#clipPath740)"
         id="g736"><g
           transform="translate(142,664)"
           id="g742"><text
             id="text746"
             style="font-variant:normal;font-weight:normal;font-size:11px;font-family:Arial;-inkscape-font-specification:ArialMT;writing-mode:lr-tb;fill:#000000;fill-opacity:1;fill-rule:nonzero;stroke:none"
             transform="scale(1,-1)"><tspan
               id="tspan744"
               y="0"
               x="0">q</tspan></text></g></g></g><g
       id="g748"><g
         clip-path="url(#clipPath754)"
         id="g750"><g
           transform="translate(148,663)"
           id="g756"><text
             id="text760"
             style="font-variant:normal;font-weight:normal;font-size:5px;font-family:Arial;-inkscape-font-specification:ArialMT;writing-mode:lr-tb;fill:#000000;fill-opacity:1;fill-rule:nonzero;stroke:none"
             transform="scale(1,-1)"><tspan
               id="tspan758"
               y="0"
               x="0">1</tspan></text></g></g></g><g
       id="g762"><g
         clip-path="url(#clipPath768)"
         id="g764"><g
           transform="translate(151,664)"
           id="g770"><text
             id="text774"
             style="font-variant:normal;font-weight:normal;font-size:11px;font-family:Arial;-inkscape-font-specification:ArialMT;writing-mode:lr-tb;fill:#000000;fill-opacity:1;fill-rule:nonzero;stroke:none"
             transform="scale(1,-1)"><tspan
               id="tspan772"
               y="0"
               x="0">q</tspan></text></g></g></g><g
       id="g776"><g
         clip-path="url(#clipPath782)"
         id="g778"><g
           transform="translate(157,663)"
           id="g784"><text
             id="text788"
             style="font-variant:normal;font-weight:normal;font-size:5px;font-family:Arial;-inkscape-font-specification:ArialMT;writing-mode:lr-tb;fill:#000000;fill-opacity:1;fill-rule:nonzero;stroke:none"
             transform="scale(1,-1)"><tspan
               id="tspan786"
               y="0"
               x="0">2</tspan></text></g></g></g><g
       id="g790"><g
         clip-path="url(#clipPath796)"
         id="g792"><g
           transform="translate(160,664)"
           id="g798"><text
             id="text802"
             style="font-variant:normal;font-weight:normal;font-size:11px;font-family:Arial;-inkscape-font-specification:ArialMT;writing-mode:lr-tb;fill:#000000;fill-opacity:1;fill-rule:nonzero;stroke:none"
             transform="scale(1,-1)"><tspan
               id="tspan800"
               y="0"
               x="0">q</tspan></text></g></g></g><g
       id="g804"><g
         clip-path="url(#clipPath810)"
         id="g806"><g
           transform="translate(166,663)"
           id="g812"><text
             id="text816"
             style="font-variant:normal;font-weight:normal;font-size:5px;font-family:Arial;-inkscape-font-specification:ArialMT;writing-mode:lr-tb;fill:#000000;fill-opacity:1;fill-rule:nonzero;stroke:none"
             transform="scale(1,-1)"><tspan
               id="tspan814"
               y="0"
               x="0">3</tspan></text></g></g></g><g
       id="g818"><g
         clip-path="url(#clipPath824)"
         id="g820"><g
           transform="translate(169,664)"
           id="g826"><text
             id="text830"
             style="font-variant:normal;font-weight:normal;font-size:11px;font-family:Arial;-inkscape-font-specification:ArialMT;writing-mode:lr-tb;fill:#000000;fill-opacity:1;fill-rule:nonzero;stroke:none"
             transform="scale(1,-1)"><tspan
               id="tspan828"
               y="0"
               x="0">q</tspan></text></g></g></g><g
       id="g832"><g
         clip-path="url(#clipPath838)"
         id="g834"><g
           transform="translate(175,663)"
           id="g840"><text
             id="text844"
             style="font-variant:normal;font-weight:normal;font-size:5px;font-family:Arial;-inkscape-font-specification:ArialMT;writing-mode:lr-tb;fill:#000000;fill-opacity:1;fill-rule:nonzero;stroke:none"
             transform="scale(1,-1)"><tspan
               id="tspan842"
               y="0"
               x="0">4</tspan></text></g></g></g><g
       id="g846"><g
         clip-path="url(#clipPath852)"
         id="g848"><g
           transform="translate(63,648)"
           id="g854"><text
             id="text858"
             style="font-variant:normal;font-size:11px;font-family:'MS Gothic';-inkscape-font-specification:MS-Mincho;writing-mode:lr-tb;fill:#000000;fill-opacity:1;fill-rule:nonzero;stroke:none"
             transform="scale(1,-1)"><tspan
               id="tspan856"
               y="0"
               x="0">✳</tspan></text></g><g
           transform="translate(74,648)"
           id="g860"><text
             id="text864"
             style="font-variant:normal;font-weight:normal;font-size:11px;font-family:Arial;-inkscape-font-specification:ArialMT;writing-mode:lr-tb;fill:#000000;fill-opacity:1;fill-rule:nonzero;stroke:none"
             transform="scale(1,-1)"><tspan
               id="tspan862"
               y="0"
               x="0">q</tspan></text></g></g></g><g
       id="g866"><g
         clip-path="url(#clipPath872)"
         id="g868"><g
           transform="translate(80,647)"
           id="g874"><text
             id="text878"
             style="font-variant:normal;font-weight:normal;font-size:5px;font-family:Arial;-inkscape-font-specification:ArialMT;writing-mode:lr-tb;fill:#000000;fill-opacity:1;fill-rule:nonzero;stroke:none"
             transform="scale(1,-1)"><tspan
               id="tspan876"
               y="0"
               x="0">1</tspan></text></g></g></g><g
       id="g880"><g
         clip-path="url(#clipPath886)"
         id="g882"><g
           transform="translate(83,648)"
           id="g888"><text
             id="text892"
             style="font-variant:normal;font-weight:normal;font-size:11px;font-family:Arial;-inkscape-font-specification:ArialMT;writing-mode:lr-tb;fill:#000000;fill-opacity:1;fill-rule:nonzero;stroke:none"
             transform="scale(1,-1)"><tspan
               id="tspan890"
               y="0"
               x="0">q</tspan></text></g></g></g><g
       id="g894"><g
         clip-path="url(#clipPath900)"
         id="g896"><g
           transform="translate(89,647)"
           id="g902"><text
             id="text906"
             style="font-variant:normal;font-weight:normal;font-size:5px;font-family:Arial;-inkscape-font-specification:ArialMT;writing-mode:lr-tb;fill:#000000;fill-opacity:1;fill-rule:nonzero;stroke:none"
             transform="scale(1,-1)"><tspan
               id="tspan904"
               y="0"
               x="0">4</tspan></text></g></g></g><g
       id="g908"><g
         clip-path="url(#clipPath914)"
         id="g910"><g
           transform="translate(117,649)"
           id="g916"><text
             id="text920"
             style="font-variant:normal;font-weight:normal;font-size:12px;font-family:Calibri;-inkscape-font-specification:Calibri;writing-mode:lr-tb;fill:#000000;fill-opacity:1;fill-rule:nonzero;stroke:none"
             transform="scale(1,-1)"><tspan
               id="tspan918"
               y="0"
               x="0">q</tspan></text></g></g></g><g
       id="g922"><g
         clip-path="url(#clipPath928)"
         id="g924"><g
           transform="translate(123,647)"
           id="g930"><text
             id="text934"
             style="font-variant:normal;font-weight:normal;font-size:8px;font-family:Calibri;-inkscape-font-specification:Calibri;writing-mode:lr-tb;fill:#000000;fill-opacity:1;fill-rule:nonzero;stroke:none"
             transform="scale(1,-1)"><tspan
               id="tspan932"
               sodipodi:role="line"
               y="0"
               x="0 4">1 </tspan></text></g></g></g><g
       id="g936"><g
         clip-path="url(#clipPath942)"
         id="g938"><g
           transform="translate(151,648)"
           id="g944"><text
             id="text948"
             style="font-variant:normal;font-weight:normal;font-size:11px;font-family:Arial;-inkscape-font-specification:ArialMT;writing-mode:lr-tb;fill:#000000;fill-opacity:1;fill-rule:nonzero;stroke:none"
             transform="scale(1,-1)"><tspan
               id="tspan946"
               y="0"
               x="0">q</tspan></text></g></g></g><g
       id="g950"><g
         clip-path="url(#clipPath956)"
         id="g952"><g
           transform="translate(157,647)"
           id="g958"><text
             id="text962"
             style="font-variant:normal;font-weight:normal;font-size:5px;font-family:Arial;-inkscape-font-specification:ArialMT;writing-mode:lr-tb;fill:#000000;fill-opacity:1;fill-rule:nonzero;stroke:none"
             transform="scale(1,-1)"><tspan
               id="tspan960"
               y="0"
               x="0">1</tspan></text></g></g></g><g
       id="g964"><g
         clip-path="url(#clipPath970)"
         id="g966"><g
           transform="translate(160,648)"
           id="g972"><text
             id="text976"
             style="font-variant:normal;font-weight:normal;font-size:11px;font-family:Arial;-inkscape-font-specification:ArialMT;writing-mode:lr-tb;fill:#000000;fill-opacity:1;fill-rule:nonzero;stroke:none"
             transform="scale(1,-1)"><tspan
               id="tspan974"
               y="0"
               x="0">q</tspan></text></g></g></g><g
       id="g978"><g
         clip-path="url(#clipPath984)"
         id="g980"><g
           transform="translate(166,647)"
           id="g986"><text
             id="text990"
             style="font-variant:normal;font-weight:normal;font-size:5px;font-family:Arial;-inkscape-font-specification:ArialMT;writing-mode:lr-tb;fill:#000000;fill-opacity:1;fill-rule:nonzero;stroke:none"
             transform="scale(1,-1)"><tspan
               id="tspan988"
               y="0"
               x="0">2</tspan></text></g></g></g><g
       id="g992"><g
         clip-path="url(#clipPath998)"
         id="g994"><g
           transform="translate(59,632)"
           id="g1000"><text
             id="text1004"
             style="font-variant:normal;font-size:11px;font-family:'MS Gothic';-inkscape-font-specification:MS-Mincho;writing-mode:lr-tb;fill:#000000;fill-opacity:1;fill-rule:nonzero;stroke:none"
             transform="scale(1,-1)"><tspan
               id="tspan1002"
               y="0"
               x="0">✳</tspan></text></g><g
           transform="translate(70,632)"
           id="g1006"><text
             id="text1010"
             style="font-variant:normal;font-weight:normal;font-size:11px;font-family:Arial;-inkscape-font-specification:ArialMT;writing-mode:lr-tb;fill:#000000;fill-opacity:1;fill-rule:nonzero;stroke:none"
             transform="scale(1,-1)"><tspan
               id="tspan1008"
               y="0"
               x="0">q</tspan></text></g></g></g><g
       id="g1012"><g
         clip-path="url(#clipPath1018)"
         id="g1014"><g
           transform="translate(76,631)"
           id="g1020"><text
             id="text1024"
             style="font-variant:normal;font-weight:normal;font-size:5px;font-family:Arial;-inkscape-font-specification:ArialMT;writing-mode:lr-tb;fill:#000000;fill-opacity:1;fill-rule:nonzero;stroke:none"
             transform="scale(1,-1)"><tspan
               id="tspan1022"
               y="0"
               x="0">1</tspan></text></g></g></g><g
       id="g1026"><g
         clip-path="url(#clipPath1032)"
         id="g1028"><g
           transform="translate(79,632)"
           id="g1034"><text
             id="text1038"
             style="font-variant:normal;font-weight:normal;font-size:11px;font-family:Arial;-inkscape-font-specification:ArialMT;writing-mode:lr-tb;fill:#000000;fill-opacity:1;fill-rule:nonzero;stroke:none"
             transform="scale(1,-1)"><tspan
               id="tspan1036"
               y="0"
               x="0">q</tspan></text></g></g></g><g
       id="g1040"><g
         clip-path="url(#clipPath1046)"
         id="g1042"><g
           transform="translate(85,631)"
           id="g1048"><text
             id="text1052"
             style="font-variant:normal;font-weight:normal;font-size:5px;font-family:Arial;-inkscape-font-specification:ArialMT;writing-mode:lr-tb;fill:#000000;fill-opacity:1;fill-rule:nonzero;stroke:none"
             transform="scale(1,-1)"><tspan
               id="tspan1050"
               y="0"
               x="0">2</tspan></text></g></g></g><g
       id="g1054"><g
         clip-path="url(#clipPath1060)"
         id="g1056"><g
           transform="translate(88,632)"
           id="g1062"><text
             id="text1066"
             style="font-variant:normal;font-weight:normal;font-size:11px;font-family:Arial;-inkscape-font-specification:ArialMT;writing-mode:lr-tb;fill:#000000;fill-opacity:1;fill-rule:nonzero;stroke:none"
             transform="scale(1,-1)"><tspan
               id="tspan1064"
               y="0"
               x="0">q</tspan></text></g></g></g><g
       id="g1068"><g
         clip-path="url(#clipPath1074)"
         id="g1070"><g
           transform="translate(94,631)"
           id="g1076"><text
             id="text1080"
             style="font-variant:normal;font-weight:normal;font-size:5px;font-family:Arial;-inkscape-font-specification:ArialMT;writing-mode:lr-tb;fill:#000000;fill-opacity:1;fill-rule:nonzero;stroke:none"
             transform="scale(1,-1)"><tspan
               id="tspan1078"
               y="0"
               x="0">4</tspan></text></g></g></g><g
       id="g1082"><g
         clip-path="url(#clipPath1088)"
         id="g1084"><g
           transform="translate(113,632)"
           id="g1090"><text
             id="text1094"
             style="font-variant:normal;font-weight:normal;font-size:11px;font-family:Arial;-inkscape-font-specification:ArialMT;writing-mode:lr-tb;fill:#000000;fill-opacity:1;fill-rule:nonzero;stroke:none"
             transform="scale(1,-1)"><tspan
               id="tspan1092"
               y="0"
               x="0">q</tspan></text></g></g></g><g
       id="g1096"><g
         clip-path="url(#clipPath1102)"
         id="g1098"><g
           transform="translate(119,631)"
           id="g1104"><text
             id="text1108"
             style="font-variant:normal;font-weight:normal;font-size:5px;font-family:Arial;-inkscape-font-specification:ArialMT;writing-mode:lr-tb;fill:#000000;fill-opacity:1;fill-rule:nonzero;stroke:none"
             transform="scale(1,-1)"><tspan
               id="tspan1106"
               y="0"
               x="0">1</tspan></text></g></g></g><g
       id="g1110"><g
         clip-path="url(#clipPath1116)"
         id="g1112"><g
           transform="translate(122,632)"
           id="g1118"><text
             id="text1122"
             style="font-variant:normal;font-weight:normal;font-size:11px;font-family:Arial;-inkscape-font-specification:ArialMT;writing-mode:lr-tb;fill:#000000;fill-opacity:1;fill-rule:nonzero;stroke:none"
             transform="scale(1,-1)"><tspan
               id="tspan1120"
               y="0"
               x="0">q</tspan></text></g></g></g><g
       id="g1124"><g
         clip-path="url(#clipPath1130)"
         id="g1126"><g
           transform="translate(128,631)"
           id="g1132"><text
             id="text1136"
             style="font-variant:normal;font-weight:normal;font-size:5px;font-family:Arial;-inkscape-font-specification:ArialMT;writing-mode:lr-tb;fill:#000000;fill-opacity:1;fill-rule:nonzero;stroke:none"
             transform="scale(1,-1)"><tspan
               id="tspan1134"
               y="0"
               x="0">3</tspan></text></g></g></g><g
       id="g1138"><g
         clip-path="url(#clipPath1144)"
         id="g1140"><g
           transform="translate(147,632)"
           id="g1146"><text
             id="text1150"
             style="font-variant:normal;font-weight:normal;font-size:11px;font-family:Arial;-inkscape-font-specification:ArialMT;writing-mode:lr-tb;fill:#000000;fill-opacity:1;fill-rule:nonzero;stroke:none"
             transform="scale(1,-1)"><tspan
               id="tspan1148"
               y="0"
               x="0">q</tspan></text></g></g></g><g
       id="g1152"><g
         clip-path="url(#clipPath1158)"
         id="g1154"><g
           transform="translate(153,631)"
           id="g1160"><text
             id="text1164"
             style="font-variant:normal;font-weight:normal;font-size:5px;font-family:Arial;-inkscape-font-specification:ArialMT;writing-mode:lr-tb;fill:#000000;fill-opacity:1;fill-rule:nonzero;stroke:none"
             transform="scale(1,-1)"><tspan
               id="tspan1162"
               y="0"
               x="0">1</tspan></text></g></g></g><g
       id="g1166"><g
         clip-path="url(#clipPath1172)"
         id="g1168"><g
           transform="translate(156,632)"
           id="g1174"><text
             id="text1178"
             style="font-variant:normal;font-weight:normal;font-size:11px;font-family:Arial;-inkscape-font-specification:ArialMT;writing-mode:lr-tb;fill:#000000;fill-opacity:1;fill-rule:nonzero;stroke:none"
             transform="scale(1,-1)"><tspan
               id="tspan1176"
               y="0"
               x="0">q</tspan></text></g></g></g><g
       id="g1180"><g
         clip-path="url(#clipPath1186)"
         id="g1182"><g
           transform="translate(162,631)"
           id="g1188"><text
             id="text1192"
             style="font-variant:normal;font-weight:normal;font-size:5px;font-family:Arial;-inkscape-font-specification:ArialMT;writing-mode:lr-tb;fill:#000000;fill-opacity:1;fill-rule:nonzero;stroke:none"
             transform="scale(1,-1)"><tspan
               id="tspan1190"
               y="0"
               x="0">2</tspan></text></g></g></g><g
       id="g1194"><g
         clip-path="url(#clipPath1200)"
         id="g1196"><g
           transform="translate(165,632)"
           id="g1202"><text
             id="text1206"
             style="font-variant:normal;font-weight:normal;font-size:11px;font-family:Arial;-inkscape-font-specification:ArialMT;writing-mode:lr-tb;fill:#000000;fill-opacity:1;fill-rule:nonzero;stroke:none"
             transform="scale(1,-1)"><tspan
               id="tspan1204"
               y="0"
               x="0">q</tspan></text></g></g></g><g
       id="g1208"><g
         clip-path="url(#clipPath1214)"
         id="g1210"><g
           transform="translate(171,631)"
           id="g1216"><text
             id="text1220"
             style="font-variant:normal;font-weight:normal;font-size:5px;font-family:Arial;-inkscape-font-specification:ArialMT;writing-mode:lr-tb;fill:#000000;fill-opacity:1;fill-rule:nonzero;stroke:none"
             transform="scale(1,-1)"><tspan
               id="tspan1218"
               y="0"
               x="0">3</tspan></text></g></g></g><g
       id="g1222"><g
         clip-path="url(#clipPath1228)"
         id="g1224"><g
           transform="translate(59,617)"
           id="g1230"><text
             id="text1234"
             style="font-variant:normal;font-size:11px;font-family:'MS Gothic';-inkscape-font-specification:MS-Mincho;writing-mode:lr-tb;fill:#000000;fill-opacity:1;fill-rule:nonzero;stroke:none"
             transform="scale(1,-1)"><tspan
               id="tspan1232"
               y="0"
               x="0">✳</tspan></text></g><g
           transform="translate(70,617)"
           id="g1236"><text
             id="text1240"
             style="font-variant:normal;font-weight:normal;font-size:11px;font-family:Arial;-inkscape-font-specification:ArialMT;writing-mode:lr-tb;fill:#000000;fill-opacity:1;fill-rule:nonzero;stroke:none"
             transform="scale(1,-1)"><tspan
               id="tspan1238"
               y="0"
               x="0">q</tspan></text></g></g></g><g
       id="g1242"><g
         clip-path="url(#clipPath1248)"
         id="g1244"><g
           transform="translate(76,616)"
           id="g1250"><text
             id="text1254"
             style="font-variant:normal;font-weight:normal;font-size:5px;font-family:Arial;-inkscape-font-specification:ArialMT;writing-mode:lr-tb;fill:#000000;fill-opacity:1;fill-rule:nonzero;stroke:none"
             transform="scale(1,-1)"><tspan
               id="tspan1252"
               y="0"
               x="0">1</tspan></text></g></g></g><g
       id="g1256"><g
         clip-path="url(#clipPath1262)"
         id="g1258"><g
           transform="translate(79,617)"
           id="g1264"><text
             id="text1268"
             style="font-variant:normal;font-weight:normal;font-size:11px;font-family:Arial;-inkscape-font-specification:ArialMT;writing-mode:lr-tb;fill:#000000;fill-opacity:1;fill-rule:nonzero;stroke:none"
             transform="scale(1,-1)"><tspan
               id="tspan1266"
               y="0"
               x="0">q</tspan></text></g></g></g><g
       id="g1270"><g
         clip-path="url(#clipPath1276)"
         id="g1272"><g
           transform="translate(85,616)"
           id="g1278"><text
             id="text1282"
             style="font-variant:normal;font-weight:normal;font-size:5px;font-family:Arial;-inkscape-font-specification:ArialMT;writing-mode:lr-tb;fill:#000000;fill-opacity:1;fill-rule:nonzero;stroke:none"
             transform="scale(1,-1)"><tspan
               id="tspan1280"
               y="0"
               x="0">3</tspan></text></g></g></g><g
       id="g1284"><g
         clip-path="url(#clipPath1290)"
         id="g1286"><g
           transform="translate(88,617)"
           id="g1292"><text
             id="text1296"
             style="font-variant:normal;font-weight:normal;font-size:11px;font-family:Arial;-inkscape-font-specification:ArialMT;writing-mode:lr-tb;fill:#000000;fill-opacity:1;fill-rule:nonzero;stroke:none"
             transform="scale(1,-1)"><tspan
               id="tspan1294"
               y="0"
               x="0">q</tspan></text></g></g></g><g
       id="g1298"><g
         clip-path="url(#clipPath1304)"
         id="g1300"><g
           transform="translate(94,616)"
           id="g1306"><text
             id="text1310"
             style="font-variant:normal;font-weight:normal;font-size:5px;font-family:Arial;-inkscape-font-specification:ArialMT;writing-mode:lr-tb;fill:#000000;fill-opacity:1;fill-rule:nonzero;stroke:none"
             transform="scale(1,-1)"><tspan
               id="tspan1308"
               y="0"
               x="0">4</tspan></text></g></g></g><g
       id="g1312"><g
         clip-path="url(#clipPath1318)"
         id="g1314"><g
           transform="translate(113,617)"
           id="g1320"><text
             id="text1324"
             style="font-variant:normal;font-weight:normal;font-size:11px;font-family:Arial;-inkscape-font-specification:ArialMT;writing-mode:lr-tb;fill:#000000;fill-opacity:1;fill-rule:nonzero;stroke:none"
             transform="scale(1,-1)"><tspan
               id="tspan1322"
               y="0"
               x="0">q</tspan></text></g></g></g><g
       id="g1326"><g
         clip-path="url(#clipPath1332)"
         id="g1328"><g
           transform="translate(119,616)"
           id="g1334"><text
             id="text1338"
             style="font-variant:normal;font-weight:normal;font-size:5px;font-family:Arial;-inkscape-font-specification:ArialMT;writing-mode:lr-tb;fill:#000000;fill-opacity:1;fill-rule:nonzero;stroke:none"
             transform="scale(1,-1)"><tspan
               id="tspan1336"
               y="0"
               x="0">1</tspan></text></g></g></g><g
       id="g1340"><g
         clip-path="url(#clipPath1346)"
         id="g1342"><g
           transform="translate(122,617)"
           id="g1348"><text
             id="text1352"
             style="font-variant:normal;font-weight:normal;font-size:11px;font-family:Arial;-inkscape-font-specification:ArialMT;writing-mode:lr-tb;fill:#000000;fill-opacity:1;fill-rule:nonzero;stroke:none"
             transform="scale(1,-1)"><tspan
               id="tspan1350"
               y="0"
               x="0">q</tspan></text></g></g></g><g
       id="g1354"><g
         clip-path="url(#clipPath1360)"
         id="g1356"><g
           transform="translate(128,616)"
           id="g1362"><text
             id="text1366"
             style="font-variant:normal;font-weight:normal;font-size:5px;font-family:Arial;-inkscape-font-specification:ArialMT;writing-mode:lr-tb;fill:#000000;fill-opacity:1;fill-rule:nonzero;stroke:none"
             transform="scale(1,-1)"><tspan
               id="tspan1364"
               y="0"
               x="0">4</tspan></text></g></g></g><g
       id="g1368"><g
         clip-path="url(#clipPath1374)"
         id="g1370"><g
           transform="translate(147,617)"
           id="g1376"><text
             id="text1380"
             style="font-variant:normal;font-weight:normal;font-size:11px;font-family:Arial;-inkscape-font-specification:ArialMT;writing-mode:lr-tb;fill:#000000;fill-opacity:1;fill-rule:nonzero;stroke:none"
             transform="scale(1,-1)"><tspan
               id="tspan1378"
               y="0"
               x="0">q</tspan></text></g></g></g><g
       id="g1382"><g
         clip-path="url(#clipPath1388)"
         id="g1384"><g
           transform="translate(153,616)"
           id="g1390"><text
             id="text1394"
             style="font-variant:normal;font-weight:normal;font-size:5px;font-family:Arial;-inkscape-font-specification:ArialMT;writing-mode:lr-tb;fill:#000000;fill-opacity:1;fill-rule:nonzero;stroke:none"
             transform="scale(1,-1)"><tspan
               id="tspan1392"
               y="0"
               x="0">1</tspan></text></g></g></g><g
       id="g1396"><g
         clip-path="url(#clipPath1402)"
         id="g1398"><g
           transform="translate(156,617)"
           id="g1404"><text
             id="text1408"
             style="font-variant:normal;font-weight:normal;font-size:11px;font-family:Arial;-inkscape-font-specification:ArialMT;writing-mode:lr-tb;fill:#000000;fill-opacity:1;fill-rule:nonzero;stroke:none"
             transform="scale(1,-1)"><tspan
               id="tspan1406"
               y="0"
               x="0">q</tspan></text></g></g></g><g
       id="g1410"><g
         clip-path="url(#clipPath1416)"
         id="g1412"><g
           transform="translate(162,616)"
           id="g1418"><text
             id="text1422"
             style="font-variant:normal;font-weight:normal;font-size:5px;font-family:Arial;-inkscape-font-specification:ArialMT;writing-mode:lr-tb;fill:#000000;fill-opacity:1;fill-rule:nonzero;stroke:none"
             transform="scale(1,-1)"><tspan
               id="tspan1420"
               y="0"
               x="0">2</tspan></text></g></g></g><g
       id="g1424"><g
         clip-path="url(#clipPath1430)"
         id="g1426"><g
           transform="translate(165,617)"
           id="g1432"><text
             id="text1436"
             style="font-variant:normal;font-weight:normal;font-size:11px;font-family:Arial;-inkscape-font-specification:ArialMT;writing-mode:lr-tb;fill:#000000;fill-opacity:1;fill-rule:nonzero;stroke:none"
             transform="scale(1,-1)"><tspan
               id="tspan1434"
               y="0"
               x="0">q</tspan></text></g></g></g><g
       id="g1438"><g
         clip-path="url(#clipPath1444)"
         id="g1440"><g
           transform="translate(171,616)"
           id="g1446"><text
             id="text1450"
             style="font-variant:normal;font-weight:normal;font-size:5px;font-family:Arial;-inkscape-font-specification:ArialMT;writing-mode:lr-tb;fill:#000000;fill-opacity:1;fill-rule:nonzero;stroke:none"
             transform="scale(1,-1)"><tspan
               id="tspan1448"
               y="0"
               x="0">4</tspan></text></g></g></g><g
       id="g1452"><g
         clip-path="url(#clipPath1458)"
         id="g1454"><g
           transform="translate(54,602)"
           id="g1460"><text
             id="text1464"
             style="font-variant:normal;font-size:11px;font-family:'MS Gothic';-inkscape-font-specification:MS-Mincho;writing-mode:lr-tb;fill:#000000;fill-opacity:1;fill-rule:nonzero;stroke:none"
             transform="scale(1,-1)"><tspan
               id="tspan1462"
               y="0"
               x="0">✳</tspan></text></g><g
           transform="translate(65,602)"
           id="g1466"><text
             id="text1470"
             style="font-variant:normal;font-weight:normal;font-size:11px;font-family:Arial;-inkscape-font-specification:ArialMT;writing-mode:lr-tb;fill:#000000;fill-opacity:1;fill-rule:nonzero;stroke:none"
             transform="scale(1,-1)"><tspan
               id="tspan1468"
               y="0"
               x="0">q</tspan></text></g></g></g><g
       id="g1472"><g
         clip-path="url(#clipPath1478)"
         id="g1474"><g
           transform="translate(71,601)"
           id="g1480"><text
             id="text1484"
             style="font-variant:normal;font-weight:normal;font-size:5px;font-family:Arial;-inkscape-font-specification:ArialMT;writing-mode:lr-tb;fill:#000000;fill-opacity:1;fill-rule:nonzero;stroke:none"
             transform="scale(1,-1)"><tspan
               id="tspan1482"
               y="0"
               x="0">1</tspan></text></g></g></g><g
       id="g1486"><g
         clip-path="url(#clipPath1492)"
         id="g1488"><g
           transform="translate(74,602)"
           id="g1494"><text
             id="text1498"
             style="font-variant:normal;font-weight:normal;font-size:11px;font-family:Arial;-inkscape-font-specification:ArialMT;writing-mode:lr-tb;fill:#000000;fill-opacity:1;fill-rule:nonzero;stroke:none"
             transform="scale(1,-1)"><tspan
               id="tspan1496"
               y="0"
               x="0">q</tspan></text></g></g></g><g
       id="g1500"><g
         clip-path="url(#clipPath1506)"
         id="g1502"><g
           transform="translate(80,601)"
           id="g1508"><text
             id="text1512"
             style="font-variant:normal;font-weight:normal;font-size:5px;font-family:Arial;-inkscape-font-specification:ArialMT;writing-mode:lr-tb;fill:#000000;fill-opacity:1;fill-rule:nonzero;stroke:none"
             transform="scale(1,-1)"><tspan
               id="tspan1510"
               y="0"
               x="0">2</tspan></text></g></g></g><g
       id="g1514"><g
         clip-path="url(#clipPath1520)"
         id="g1516"><g
           transform="translate(83,602)"
           id="g1522"><text
             id="text1526"
             style="font-variant:normal;font-weight:normal;font-size:11px;font-family:Arial;-inkscape-font-specification:ArialMT;writing-mode:lr-tb;fill:#000000;fill-opacity:1;fill-rule:nonzero;stroke:none"
             transform="scale(1,-1)"><tspan
               id="tspan1524"
               y="0"
               x="0">q</tspan></text></g></g></g><g
       id="g1528"><g
         clip-path="url(#clipPath1534)"
         id="g1530"><g
           transform="translate(89,601)"
           id="g1536"><text
             id="text1540"
             style="font-variant:normal;font-weight:normal;font-size:5px;font-family:Arial;-inkscape-font-specification:ArialMT;writing-mode:lr-tb;fill:#000000;fill-opacity:1;fill-rule:nonzero;stroke:none"
             transform="scale(1,-1)"><tspan
               id="tspan1538"
               y="0"
               x="0">3</tspan></text></g></g></g><g
       id="g1542"><g
         clip-path="url(#clipPath1548)"
         id="g1544"><g
           transform="translate(92,602)"
           id="g1550"><text
             id="text1554"
             style="font-variant:normal;font-weight:normal;font-size:11px;font-family:Arial;-inkscape-font-specification:ArialMT;writing-mode:lr-tb;fill:#000000;fill-opacity:1;fill-rule:nonzero;stroke:none"
             transform="scale(1,-1)"><tspan
               id="tspan1552"
               y="0"
               x="0">q</tspan></text></g></g></g><g
       id="g1556"><g
         clip-path="url(#clipPath1562)"
         id="g1558"><g
           transform="translate(98,601)"
           id="g1564"><text
             id="text1568"
             style="font-variant:normal;font-weight:normal;font-size:5px;font-family:Arial;-inkscape-font-specification:ArialMT;writing-mode:lr-tb;fill:#000000;fill-opacity:1;fill-rule:nonzero;stroke:none"
             transform="scale(1,-1)"><tspan
               id="tspan1566"
               y="0"
               x="0">4</tspan></text></g></g></g><g
       id="g1570"><g
         clip-path="url(#clipPath1576)"
         id="g1572"><g
           transform="translate(108,602)"
           id="g1578"><text
             id="text1582"
             style="font-variant:normal;font-weight:normal;font-size:11px;font-family:Arial;-inkscape-font-specification:ArialMT;writing-mode:lr-tb;fill:#000000;fill-opacity:1;fill-rule:nonzero;stroke:none"
             transform="scale(1,-1)"><tspan
               id="tspan1580"
               y="0"
               x="0">q</tspan></text></g></g></g><g
       id="g1584"><g
         clip-path="url(#clipPath1590)"
         id="g1586"><g
           transform="translate(114,601)"
           id="g1592"><text
             id="text1596"
             style="font-variant:normal;font-weight:normal;font-size:5px;font-family:Arial;-inkscape-font-specification:ArialMT;writing-mode:lr-tb;fill:#000000;fill-opacity:1;fill-rule:nonzero;stroke:none"
             transform="scale(1,-1)"><tspan
               id="tspan1594"
               y="0"
               x="0">1</tspan></text></g></g></g><g
       id="g1598"><g
         clip-path="url(#clipPath1604)"
         id="g1600"><g
           transform="translate(117,602)"
           id="g1606"><text
             id="text1610"
             style="font-variant:normal;font-weight:normal;font-size:11px;font-family:Arial;-inkscape-font-specification:ArialMT;writing-mode:lr-tb;fill:#000000;fill-opacity:1;fill-rule:nonzero;stroke:none"
             transform="scale(1,-1)"><tspan
               id="tspan1608"
               y="0"
               x="0">q</tspan></text></g></g></g><g
       id="g1612"><g
         clip-path="url(#clipPath1618)"
         id="g1614"><g
           transform="translate(123,601)"
           id="g1620"><text
             id="text1624"
             style="font-variant:normal;font-weight:normal;font-size:5px;font-family:Arial;-inkscape-font-specification:ArialMT;writing-mode:lr-tb;fill:#000000;fill-opacity:1;fill-rule:nonzero;stroke:none"
             transform="scale(1,-1)"><tspan
               id="tspan1622"
               y="0"
               x="0">3</tspan></text></g></g></g><g
       id="g1626"><g
         clip-path="url(#clipPath1632)"
         id="g1628"><g
           transform="translate(126,602)"
           id="g1634"><text
             id="text1638"
             style="font-variant:normal;font-weight:normal;font-size:11px;font-family:Arial;-inkscape-font-specification:ArialMT;writing-mode:lr-tb;fill:#000000;fill-opacity:1;fill-rule:nonzero;stroke:none"
             transform="scale(1,-1)"><tspan
               id="tspan1636"
               y="0"
               x="0">q</tspan></text></g></g></g><g
       id="g1640"><g
         clip-path="url(#clipPath1646)"
         id="g1642"><g
           transform="translate(132,601)"
           id="g1648"><text
             id="text1652"
             style="font-variant:normal;font-weight:normal;font-size:5px;font-family:Arial;-inkscape-font-specification:ArialMT;writing-mode:lr-tb;fill:#000000;fill-opacity:1;fill-rule:nonzero;stroke:none"
             transform="scale(1,-1)"><tspan
               id="tspan1650"
               y="0"
               x="0">4</tspan></text></g></g></g><g
       id="g1654"><g
         clip-path="url(#clipPath1660)"
         id="g1656"><g
           transform="translate(142,602)"
           id="g1662"><text
             id="text1666"
             style="font-variant:normal;font-weight:normal;font-size:11px;font-family:Arial;-inkscape-font-specification:ArialMT;writing-mode:lr-tb;fill:#000000;fill-opacity:1;fill-rule:nonzero;stroke:none"
             transform="scale(1,-1)"><tspan
               id="tspan1664"
               y="0"
               x="0">q</tspan></text></g></g></g><g
       id="g1668"><g
         clip-path="url(#clipPath1674)"
         id="g1670"><g
           transform="translate(148,601)"
           id="g1676"><text
             id="text1680"
             style="font-variant:normal;font-weight:normal;font-size:5px;font-family:Arial;-inkscape-font-specification:ArialMT;writing-mode:lr-tb;fill:#000000;fill-opacity:1;fill-rule:nonzero;stroke:none"
             transform="scale(1,-1)"><tspan
               id="tspan1678"
               y="0"
               x="0">1</tspan></text></g></g></g><g
       id="g1682"><g
         clip-path="url(#clipPath1688)"
         id="g1684"><g
           transform="translate(151,602)"
           id="g1690"><text
             id="text1694"
             style="font-variant:normal;font-weight:normal;font-size:11px;font-family:Arial;-inkscape-font-specification:ArialMT;writing-mode:lr-tb;fill:#000000;fill-opacity:1;fill-rule:nonzero;stroke:none"
             transform="scale(1,-1)"><tspan
               id="tspan1692"
               y="0"
               x="0">q</tspan></text></g></g></g><g
       id="g1696"><g
         clip-path="url(#clipPath1702)"
         id="g1698"><g
           transform="translate(157,601)"
           id="g1704"><text
             id="text1708"
             style="font-variant:normal;font-weight:normal;font-size:5px;font-family:Arial;-inkscape-font-specification:ArialMT;writing-mode:lr-tb;fill:#000000;fill-opacity:1;fill-rule:nonzero;stroke:none"
             transform="scale(1,-1)"><tspan
               id="tspan1706"
               y="0"
               x="0">2</tspan></text></g></g></g><g
       id="g1710"><g
         clip-path="url(#clipPath1716)"
         id="g1712"><g
           transform="translate(160,602)"
           id="g1718"><text
             id="text1722"
             style="font-variant:normal;font-weight:normal;font-size:11px;font-family:Arial;-inkscape-font-specification:ArialMT;writing-mode:lr-tb;fill:#000000;fill-opacity:1;fill-rule:nonzero;stroke:none"
             transform="scale(1,-1)"><tspan
               id="tspan1720"
               y="0"
               x="0">q</tspan></text></g></g></g><g
       id="g1724"><g
         clip-path="url(#clipPath1730)"
         id="g1726"><g
           transform="translate(166,601)"
           id="g1732"><text
             id="text1736"
             style="font-variant:normal;font-weight:normal;font-size:5px;font-family:Arial;-inkscape-font-specification:ArialMT;writing-mode:lr-tb;fill:#000000;fill-opacity:1;fill-rule:nonzero;stroke:none"
             transform="scale(1,-1)"><tspan
               id="tspan1734"
               y="0"
               x="0">3</tspan></text></g></g></g><g
       id="g1738"><g
         clip-path="url(#clipPath1744)"
         id="g1740"><g
           transform="translate(169,602)"
           id="g1746"><text
             id="text1750"
             style="font-variant:normal;font-weight:normal;font-size:11px;font-family:Arial;-inkscape-font-specification:ArialMT;writing-mode:lr-tb;fill:#000000;fill-opacity:1;fill-rule:nonzero;stroke:none"
             transform="scale(1,-1)"><tspan
               id="tspan1748"
               y="0"
               x="0">q</tspan></text></g></g></g><g
       id="g1752"><g
         clip-path="url(#clipPath1758)"
         id="g1754"><g
           transform="translate(175,601)"
           id="g1760"><text
             id="text1764"
             style="font-variant:normal;font-weight:normal;font-size:5px;font-family:Arial;-inkscape-font-specification:ArialMT;writing-mode:lr-tb;fill:#000000;fill-opacity:1;fill-rule:nonzero;stroke:none"
             transform="scale(1,-1)"><tspan
               id="tspan1762"
               y="0"
               x="0">4</tspan></text></g></g></g><g
       id="g1766"><g
         clip-path="url(#clipPath1772)"
         id="g1768"><g
           transform="translate(75,587)"
           id="g1774"><text
             id="text1778"
             style="font-variant:normal;font-size:12px;font-family:'MS Gothic';-inkscape-font-specification:MS-Mincho;writing-mode:lr-tb;fill:#000000;fill-opacity:1;fill-rule:nonzero;stroke:none"
             transform="scale(1,-1)"><tspan
               id="tspan1776"
               y="0"
               x="0">∅</tspan></text></g></g></g><g
       id="g1780"><g
         clip-path="url(#clipPath1786)"
         id="g1782"><g
           transform="translate(119,587)"
           id="g1788"><text
             id="text1792"
             style="font-variant:normal;font-size:12px;font-family:'MS Gothic';-inkscape-font-specification:MS-Mincho;writing-mode:lr-tb;fill:#000000;fill-opacity:1;fill-rule:nonzero;stroke:none"
             transform="scale(1,-1)"><tspan
               id="tspan1790"
               y="0"
               x="0">∅</tspan></text></g></g></g><g
       id="g1794"><g
         clip-path="url(#clipPath1800)"
         id="g1796"><g
           transform="translate(157,587)"
           id="g1802"><text
             id="text1806"
             style="font-variant:normal;font-size:12px;font-family:'MS Gothic';-inkscape-font-specification:MS-Mincho;writing-mode:lr-tb;fill:#000000;fill-opacity:1;fill-rule:nonzero;stroke:none"
             transform="scale(1,-1)"><tspan
               id="tspan1804"
               y="0"
               x="0">∅</tspan></text></g></g></g><g
       id="g1808"><g
         clip-path="url(#clipPath1814)"
         id="g1810"><path
           id="path1816"
           style="fill:#000000;fill-opacity:1;fill-rule:nonzero;stroke:none"
           d="m 104,583 h 1 v 155 h -1 z" /></g></g><g
       id="g1818"><g
         clip-path="url(#clipPath1824)"
         id="g1820"><path
           id="path1826"
           style="fill:#000000;fill-opacity:1;fill-rule:nonzero;stroke:none"
           d="m 50,722 h 132 v 1 H 50 Z" /></g></g></g></svg>
